…
``` r
artist_counts <- uoe_art %>%
  group_by(Artist) %>%  
  summarise(Count = n()) %>%  
  arrange(desc(Count))

# View the result
print(artist_counts)
```

    ## # A tibble: 1,199 × 2
    ##    Artist           Count
    ##    <chr>            <int>
    ##  1 Unknown            373
    ##  2 Emma Gillies       175
    ##  3 <NA>               111
    ##  4 Ann F Ward          23
    ##  5 John Bellany        22
    ##  6 Zygmunt Bukowski    21
    ##  7 Boris Bućan         17
    ##  8 Marjorie Wallace    17
    ##  9 Gordon Bryce        16
    ## 10 William Gillon      16
    ## # ℹ 1,189 more rows
…
